Design Lib/Inv/schematic schematic none BBOX -35 0 125 50
Net OutTail signal 
Net TopTail signal 
Shape Path at -20 24 0 26 LPP 229/252 on net TopTail
Shape Path at 88 24 110 26 LPP 229/252 on net OutTail
Shape Polygon at 0 0 70 50 LPP 231/252
Shape Polygon at 70 16 88 34 LPP 231/252
Shape Rect at 110 21 125 29 LPP 229/252 on pin OUT
Shape Rect at -35 21 -20 29 LPP 229/252 on pin IN1
Term T1 on TopTail type input Pin=IN1
Term T2 on OutTail type output Pin=OUT
