Design Lib/Sample/schematic schematic softMacro BBOX -290 -187 707 880
Inst Inst1 OF Lib/Gate/schematic R90 LOC (-220 0) BBOX -290 -135 -75 655
Inst Inst2 OF Lib/Gate/schematic R90 LOC (220 0) BBOX 150 -135 365 655
Inst Inst3 OF Lib/Gate/schematic R0 LOC (0 810) BBOX -135 665 655 880
InstTerm Inst1 of a is on N1
InstTerm Inst1 of b is on N2
InstTerm Inst1 of SUM is on N3
InstTerm Inst2 of a is on N4
InstTerm Inst2 of b is on N5
InstTerm Inst2 of SUM is on N6
InstTerm Inst3 of a is on N3
InstTerm Inst3 of b is on N6
InstTerm Inst3 of SUM is on N7
Net EmptyNet1 signal 
Net N1 signal 
Net N2 signal 
Net N3 signal 
Net N4 signal 
Net N5 signal 
Net N6 signal 
Net N7 signal 
Net RouteNet1 signal 
Net RouteNet2 signal 
Route ST normal NET N1 START InstTerm[Inst1/a]END Pin P-1[T1]SEG at (-270 -135)(-270 -185) on 231
Route ST normal NET RouteNet1 START NULL END Rect at 415 655 435 675 on 231/252 SEG at (365 665)(415 665) on 231
Route ST normal NET RouteNet1 START Rect at 415 655 435 675 on 231/252 END NULL SEG at (425 665)(455 665) on 231
Route ST normal NET RouteNet2 START NULL END NULL SEG at (465 655)(485 655) on 231
Route ST normal NET RouteNet2 START NULL END NULL SEG at (485 635)(485 675) on 231
Route ST normal NET RouteNet2 START NULL END NULL SEG at (485 645)(495 645) on 231
Shape Path at -136 654 257 840 LPP 231/252 on net N6
Shape Path at 169 -185 171 -135 LPP 231/252 on net N4
Shape Path at -183 655 -135 861 LPP 231/252 on net N3
Shape Path at 189 -185 191 -135 LPP 231/252 on net N5
Shape Path at -251 -185 -249 -135 LPP 231/252 on net N2
Shape Path at -271 -185 -269 -135 LPP 231/252 on net N1
Shape Path at 655 771 705 773 LPP 231/252 on net N7
Shape PathSeg at -271 -185 -269 -135 LPP 231/252 on net N1 ROUTE
Shape PathSeg at 365 664 415 666 LPP 231/252 on net RouteNet1 ROUTE
Shape PathSeg at 425 664 455 666 LPP 231/252 on net RouteNet1 ROUTE
Shape PathSeg at 465 654 485 656 LPP 231/252 on net RouteNet2 ROUTE
Shape PathSeg at 484 635 486 675 LPP 231/252 on net RouteNet2 ROUTE
Shape PathSeg at 485 644 495 646 LPP 231/252 on net RouteNet2 ROUTE
Shape Rect at 168 -187 170 -185 LPP 231/252 on pin P-3
Shape Rect at 188 -187 190 -185 LPP 231/252 on pin P-4
Shape Rect at -252 -187 -250 -185 LPP 231/252 on pin P-2
Shape Rect at -272 -187 -270 -185 LPP 231/252 on pin P-1
Shape Rect at 415 655 435 675 LPP 231/252 on net RouteNet1
Shape Rect at 705 772 707 774 LPP 231/252 on pin P-5
Term T1 on N1 type input Pin=P-1
Term T2 on N2 type input Pin=P-2
Term T3 on N4 type input Pin=P-3
Term T4 on N5 type input Pin=P-4
Term T5 on N7 type output Pin=P-5
Term TermEmptyNet on EmptyNet1 type input
