Design Lib/Or/schematic schematic none BBOX ((-65, 0) (155, 70))
Net BotTail signal
Net OutTail signal
Net TopTail signal
Shape Path at ((100, 34) (140, 36)) LPP 229/252 on net OutTail
Shape Path at ((-50, 19) (15, 21)) LPP 229/252 on net BotTail
Shape Path at ((-50, 49) (15, 51)) LPP 229/252 on net TopTail
Shape Polygon at ((0, 0) (100, 70)) LPP 231/252
Shape Rect at ((140, 31) (155, 39)) LPP 229/252 on pin OUT
Shape Rect at ((-65, 16) (-50, 24)) LPP 229/252 on pin IN2
Shape Rect at ((-65, 46) (-50, 54)) LPP 229/252 on pin IN1
Term T1 on TopTail type input Pin=IN1
Term T2 on BotTail type input Pin=IN2
Term T3 on OutTail type output Pin=OUT
